{
    "timeToStep": 1,
    "pointsByBreakingLine": 100,
    "controledRandomMode": true,
    "debugMode": false,
    "moveRightKey": 275,
    "moveLeftKey": 276,
    "moveDownKey": 274,
    "rotateRightKey": 103,
    "rotateLeftKey": 102,
     "pieces": [
        {
            "name": "TetriminoI",
            "color": {
                "r": 0.0,
                "g": 1.0,
                "b": 1.0,
                "a": 1.0
            },
            "serializedBlockPositions": [
                0,
                0,
                0,
                0,
                0,
                0,
                0,
                0,
                0,
                0,
                0,
                1,
                1,
                1,
                1,
                0,
                0,
                0,
                0,
                0,
                0,
                0,
                0,
                0,
                0,
                0,
                0,
                0,
                0,
                0,
                0,
                0,
                1,
                0,
                0,
                0,
                0,
                1,
                0,
                0,
                0,
                0,
                1,
                0,
                0,
                0,
                0,
                1,
                0,
                0,
                0,
                0,
                0,
                0,
                0,
                0,
                0,
                0,
                0,
                0,
                1,
                1,
                1,
                1,
                0,
                0,
                0,
                0,
                0,
                0,
                0,
                0,
                0,
                0,
                0,
                0,
                0,
                1,
                0,
                0,
                0,
                0,
                1,
                0,
                0,
                0,
                0,
                1,
                0,
                0,
                0,
                0,
                1,
                0,
                0,
                0,
                0,
                0,
                0,
                0
            ],
            "initialPosition": [
                {
                    "x": -2,
                    "y": -2
                },
                {
                    "x": -2,
                    "y": -3
                },
                {
                    "x": -2,
                    "y": -2
                },
                {
                    "x": -2,
                    "y": -3
                }
            ]
        },
        {
            "name": "TetriminoJ",
            "color": {
                "r": 0.0,
                "g": 0.0,
                "b": 1.0,
                "a": 1.0
            },
            "serializedBlockPositions": [
                0,
                0,
                0,
                0,
                0,
                0,
                0,
                1,
                0,
                0,
                0,
                0,
                1,
                0,
                0,
                0,
                1,
                1,
                0,
                0,
                0,
                0,
                0,
                0,
                0,
                0,
                0,
                0,
                0,
                0,
                0,
                1,
                0,
                0,
                0,
                0,
                1,
                1,
                1,
                0,
                0,
                0,
                0,
                0,
                0,
                0,
                0,
                0,
                0,
                0,
                0,
                0,
                0,
                0,
                0,
                0,
                0,
                1,
                1,
                0,
                0,
                0,
                1,
                0,
                0,
                0,
                0,
                1,
                0,
                0,
                0,
                0,
                0,
                0,
                0,
                0,
                0,
                0,
                0,
                0,
                0,
                0,
                0,
                0,
                0,
                0,
                1,
                1,
                1,
                0,
                0,
                0,
                0,
                1,
                0,
                0,
                0,
                0,
                0,
                0
            ],
            "initialPosition": [
                {
                    "x": -2,
                    "y": -3
                },
                {
                    "x": -2,
                    "y": -2
                },
                {
                    "x": -2,
                    "y": -3
                },
                {
                    "x": -2,
                    "y": -3
                }
            ]
        },
        {
            "name": "TetriminoL",
            "color": {
                "r": 0.9200000166893005,
                "g": 0.4699999988079071,
                "b": 0.1899999976158142,
                "a": 1.0
            },
            "serializedBlockPositions": [
                0,
                0,
                0,
                0,
                0,
                0,
                0,
                1,
                0,
                0,
                0,
                0,
                1,
                0,
                0,
                0,
                0,
                1,
                1,
                0,
                0,
                0,
                0,
                0,
                0,
                0,
                0,
                0,
                0,
                0,
                0,
                0,
                0,
                0,
                0,
                0,
                1,
                1,
                1,
                0,
                0,
                1,
                0,
                0,
                0,
                0,
                0,
                0,
                0,
                0,
                0,
                0,
                0,
                0,
                0,
                0,
                1,
                1,
                0,
                0,
                0,
                0,
                1,
                0,
                0,
                0,
                0,
                1,
                0,
                0,
                0,
                0,
                0,
                0,
                0,
                0,
                0,
                0,
                0,
                0,
                0,
                0,
                0,
                1,
                0,
                0,
                1,
                1,
                1,
                0,
                0,
                0,
                0,
                0,
                0,
                0,
                0,
                0,
                0,
                0
            ],
            "initialPosition": [
                {
                    "x": -2,
                    "y": -3
                },
                {
                    "x": -2,
                    "y": -3
                },
                {
                    "x": -2,
                    "y": -3
                },
                {
                    "x": -2,
                    "y": -2
                }
            ]
        },
        {
            "name": "TetriminoO",
            "color": {
                "r": 1.0,
                "g": 0.9210000038146973,
                "b": 0.014999999664723874,
                "a": 1.0
            },
            "serializedBlockPositions": [
                0,
                0,
                0,
                0,
                0,
                0,
                0,
                0,
                0,
                0,
                0,
                0,
                1,
                1,
                0,
                0,
                0,
                1,
                1,
                0,
                0,
                0,
                0,
                0,
                0,
                0,
                0,
                0,
                0,
                0,
                0,
                0,
                0,
                0,
                0,
                0,
                0,
                1,
                1,
                0,
                0,
                0,
                1,
                1,
                0,
                0,
                0,
                0,
                0,
                0,
                0,
                0,
                0,
                0,
                0,
                0,
                0,
                0,
                0,
                0,
                0,
                0,
                1,
                1,
                0,
                0,
                0,
                1,
                1,
                0,
                0,
                0,
                0,
                0,
                0,
                0,
                0,
                0,
                0,
                0,
                0,
                0,
                0,
                0,
                0,
                0,
                0,
                1,
                1,
                0,
                0,
                0,
                1,
                1,
                0,
                0,
                0,
                0,
                0,
                0
            ],
            "initialPosition": [
                {
                    "x": -2,
                    "y": -3
                },
                {
                    "x": -2,
                    "y": -3
                },
                {
                    "x": -2,
                    "y": -3
                },
                {
                    "x": -2,
                    "y": -3
                }
            ]
        },
        {
            "name": "TetriminoS",
            "color": {
                "r": 0.0,
                "g": 1.0,
                "b": 0.0,
                "a": 1.0
            },
            "serializedBlockPositions": [
                0,
                0,
                0,
                0,
                0,
                0,
                0,
                1,
                0,
                0,
                0,
                0,
                1,
                1,
                0,
                0,
                0,
                0,
                1,
                0,
                0,
                0,
                0,
                0,
                0,
                0,
                0,
                0,
                0,
                0,
                0,
                0,
                0,
                0,
                0,
                0,
                0,
                1,
                1,
                0,
                0,
                1,
                1,
                0,
                0,
                0,
                0,
                0,
                0,
                0,
                0,
                0,
                0,
                0,
                0,
                0,
                1,
                0,
                0,
                0,
                0,
                1,
                1,
                0,
                0,
                0,
                0,
                1,
                0,
                0,
                0,
                0,
                0,
                0,
                0,
                0,
                0,
                0,
                0,
                0,
                0,
                0,
                1,
                1,
                0,
                0,
                1,
                1,
                0,
                0,
                0,
                0,
                0,
                0,
                0,
                0,
                0,
                0,
                0,
                0
            ],
            "initialPosition": [
                {
                    "x": -2,
                    "y": -3
                },
                {
                    "x": -2,
                    "y": -3
                },
                {
                    "x": -2,
                    "y": -3
                },
                {
                    "x": -2,
                    "y": -2
                }
            ]
        },
        {
            "name": "TetriminoT",
            "color": {
                "r": 1.0,
                "g": 0.0,
                "b": 1.0,
                "a": 1.0
            },
            "serializedBlockPositions": [
                0,
                0,
                0,
                0,
                0,
                0,
                0,
                1,
                0,
                0,
                0,
                0,
                1,
                1,
                0,
                0,
                0,
                1,
                0,
                0,
                0,
                0,
                0,
                0,
                0,
                0,
                0,
                0,
                0,
                0,
                0,
                0,
                0,
                0,
                0,
                0,
                1,
                1,
                1,
                0,
                0,
                0,
                1,
                0,
                0,
                0,
                0,
                0,
                0,
                0,
                0,
                0,
                0,
                0,
                0,
                0,
                0,
                1,
                0,
                0,
                0,
                1,
                1,
                0,
                0,
                0,
                0,
                1,
                0,
                0,
                0,
                0,
                0,
                0,
                0,
                0,
                0,
                0,
                0,
                0,
                0,
                0,
                1,
                0,
                0,
                0,
                1,
                1,
                1,
                0,
                0,
                0,
                0,
                0,
                0,
                0,
                0,
                0,
                0,
                0
            ],
            "initialPosition": [
                {
                    "x": -2,
                    "y": -3
                },
                {
                    "x": -2,
                    "y": -3
                },
                {
                    "x": -2,
                    "y": -3
                },
                {
                    "x": -2,
                    "y": -2
                }
            ]
        },
        {
            "name": "TetriminoZ",
            "color": {
                "r": 1.0,
                "g": 0.0,
                "b": 0.0,
                "a": 1.0
            },
            "serializedBlockPositions": [
                0,
                0,
                0,
                0,
                0,
                0,
                0,
                0,
                1,
                0,
                0,
                0,
                1,
                1,
                0,
                0,
                0,
                1,
                0,
                0,
                0,
                0,
                0,
                0,
                0,
                0,
                0,
                0,
                0,
                0,
                0,
                0,
                0,
                0,
                0,
                0,
                1,
                1,
                0,
                0,
                0,
                0,
                1,
                1,
                0,
                0,
                0,
                0,
                0,
                0,
                0,
                0,
                0,
                0,
                0,
                0,
                0,
                1,
                0,
                0,
                0,
                1,
                1,
                0,
                0,
                0,
                1,
                0,
                0,
                0,
                0,
                0,
                0,
                0,
                0,
                0,
                0,
                0,
                0,
                0,
                0,
                1,
                1,
                0,
                0,
                0,
                0,
                1,
                1,
                0,
                0,
                0,
                0,
                0,
                0,
                0,
                0,
                0,
                0,
                0
            ],
            "initialPosition": [
                {
                    "x": -2,
                    "y": -3
                },
                {
                    "x": -2,
                    "y": -3
                },
                {
                    "x": -2,
                    "y": -3
                },
                {
                    "x": -2,
                    "y": -2
                }
            ]
        }
    ]
}